{
    "products" : [
        {
            "id": 5,
            "url": "#",
            "title": "Grifo",
            "text": "Night lamp",
            "labels": "",
            "image": "05.jpg",
            "price": "1.500.000",
            "priceOld": "",
            "shareUrl": "",
            "likeUrl": ""
        },
        {
            "id": 5,
            "url": "#",
            "title": "Grifo",
            "text": "Night lamp",
            "labels": [
                {
                    "type":"sale",
                    "value": "-50%"
                },
                {
                    "type":"new",
                    "value": "New"
                }
            ],
            "image": "06.jpg",
            "price": "1.500.000",
            "priceOld": "",
            "shareUrl": "",
            "likeUrl": ""
        },
        {
            "id": 5,
            "url": "#",
            "title": "Grifo",
            "text": "Git bad set",
            "labels": [
                {
                    "type":"sale",
                    "value": "-50%"
                },
                {
                    "type":"new",
                    "value": "New"
                }
            ],
            "image": "07.jpg",
            "price": "3.400.000",
            "priceOld": "",
            "shareUrl": "",
            "likeUrl": ""
        },
        {
            "id": 5,
            "url": "#",
            "title": "Grifo",
            "text": "Night lamp",
            "labels": [
                {
                    "type":"sale",
                    "value": "-50%"
                },
                {
                    "type":"new",
                    "value": "New"
                }
            ],
            "image": "08.jpg",
            "price": "2.100.000",
            "priceOld": "",
            "shareUrl": "",
            "likeUrl": ""
        }
    ]
}